<svg xmlns="http://www.w3.org/2000/svg" width="170" height="28.183" viewBox="0 0 170 28.183">
  <path id="Path_2650" data-name="Path 2650" d="M10.01,2.813H5.831V-13.414H.48v-3.477H15.36v3.477H10.01Zm17.629,0-.8-2.049h-.108A6.071,6.071,0,0,1,24.6,2.577a6.9,6.9,0,0,1-2.864.505,4.631,4.631,0,0,1-3.417-1.24,4.762,4.762,0,0,1-1.247-3.531A3.976,3.976,0,0,1,18.75-5.226a9.723,9.723,0,0,1,5.061-1.26l2.615-.081v-.66a2.049,2.049,0,0,0-2.345-2.291,10.687,10.687,0,0,0-4.246,1.092L18.474-11.2a12.25,12.25,0,0,1,5.769-1.361,7.186,7.186,0,0,1,4.65,1.321A4.882,4.882,0,0,1,30.51-7.228V2.813ZM26.426-4.168l-1.59.054a5.093,5.093,0,0,0-2.669.647,2.032,2.032,0,0,0-.876,1.806q0,1.739,1.995,1.739A3.159,3.159,0,0,0,25.57-.745a2.888,2.888,0,0,0,.856-2.183ZM48.234,2.813H44.123V-9.169H40.335a52.147,52.147,0,0,1-1.051,7.541,8.247,8.247,0,0,1-1.651,3.6,3.513,3.513,0,0,1-2.7,1.112,5.523,5.523,0,0,1-2.345-.431V-.637a3.472,3.472,0,0,0,1.321.27q.768,0,1.287-1.105a15.055,15.055,0,0,0,.93-3.686q.411-2.581.708-7.1h11.4Zm13.882,0-.8-2.049h-.108a6.071,6.071,0,0,1-2.136,1.813,6.9,6.9,0,0,1-2.864.505A4.631,4.631,0,0,1,52.8,1.843a4.762,4.762,0,0,1-1.247-3.531,3.976,3.976,0,0,1,1.678-3.538,9.723,9.723,0,0,1,5.061-1.26L60.9-6.568v-.66a2.049,2.049,0,0,0-2.345-2.291,10.687,10.687,0,0,0-4.246,1.092L52.951-11.2a12.25,12.25,0,0,1,5.769-1.361,7.186,7.186,0,0,1,4.65,1.321,4.881,4.881,0,0,1,1.617,4.016V2.813ZM60.9-4.168l-1.59.054a5.093,5.093,0,0,0-2.669.647,2.032,2.032,0,0,0-.876,1.806q0,1.739,1.995,1.739a3.159,3.159,0,0,0,2.285-.822A2.888,2.888,0,0,0,60.9-2.928ZM73.33-12.255v5.8h5.742v-5.8h4.111V2.813H79.072V-3.4H73.33V2.813H69.219V-12.255ZM96.189-13.7a4.257,4.257,0,0,0-3.653,1.772,8.246,8.246,0,0,0-1.294,4.94q0,6.591,4.946,6.591a15.636,15.636,0,0,0,5.027-1.038v3.5A13.961,13.961,0,0,1,95.8,3.083,8.264,8.264,0,0,1,89.221.475q-2.278-2.608-2.278-7.487A12.226,12.226,0,0,1,88.062-12.4a8.085,8.085,0,0,1,3.215-3.545,9.509,9.509,0,0,1,4.913-1.233,13.259,13.259,0,0,1,5.769,1.388l-1.348,3.4a22.31,22.31,0,0,0-2.224-.917A6.634,6.634,0,0,0,96.189-13.7Zm21.363,1.442v3.086h-4.933V2.813h-4.111V-9.169h-4.946v-3.086ZM128.631,3.083a5,5,0,0,1-4.165-1.927h-.216q.216,1.887.216,2.183V9.445h-4.111v-21.7H123.7l.58,1.954h.189a4.756,4.756,0,0,1,4.273-2.237,4.89,4.89,0,0,1,4.178,2.062,9.538,9.538,0,0,1,1.51,5.728,11.311,11.311,0,0,1-.708,4.192A5.88,5.88,0,0,1,131.7,2.153,5.163,5.163,0,0,1,128.631,3.083ZM127.418-9.25a2.6,2.6,0,0,0-2.224.937,5.378,5.378,0,0,0-.728,3.093v.445a6.348,6.348,0,0,0,.721,3.477,2.574,2.574,0,0,0,2.285,1.051q2.763,0,2.763-4.556a6.505,6.505,0,0,0-.681-3.336A2.323,2.323,0,0,0,127.418-9.25Zm13.68,4.5a6.324,6.324,0,0,0,.735,3.383,2.627,2.627,0,0,0,2.392,1.146,2.585,2.585,0,0,0,2.365-1.139,6.415,6.415,0,0,0,.721-3.39,6.224,6.224,0,0,0-.728-3.356A2.632,2.632,0,0,0,144.2-9.223a2.623,2.623,0,0,0-2.372,1.112A6.219,6.219,0,0,0,141.1-4.748Zm10.419,0a8.1,8.1,0,0,1-1.941,5.755,7.037,7.037,0,0,1-5.4,2.076,7.561,7.561,0,0,1-3.828-.95A6.323,6.323,0,0,1,137.8-.6a9.171,9.171,0,0,1-.89-4.151,8.053,8.053,0,0,1,1.927-5.742,7.078,7.078,0,0,1,5.418-2.049,7.6,7.6,0,0,1,3.828.943,6.3,6.3,0,0,1,2.547,2.709A9.086,9.086,0,0,1,151.517-4.748Zm7.373-7.507V-6.3q0,.943-.31,4.61l6.955-10.567h4.947V2.813H166.5V-3.2q0-1.6.27-4.529l-6.928,10.54h-4.933V-12.255Zm10.378-6.483a4.805,4.805,0,0,1-1.9,3.673,8.221,8.221,0,0,1-4.744,1.152,8.115,8.115,0,0,1-4.724-1.105,4.729,4.729,0,0,1-1.718-3.72h3.68a2.87,2.87,0,0,0,.694,1.948,3.167,3.167,0,0,0,2.15.559,2.913,2.913,0,0,0,2.028-.613,2.937,2.937,0,0,0,.815-1.894Z" transform="translate(-0.48 18.738)" fill="#fff"/>
</svg>
